Predicting distributional ranges of rocky intertidal species using a multi-dataset approach
…
# initialising a client is the first step to interacting with an EMODnet Web Feature Services
#wfs_geo <- emodnet_init_wfs_client(service = "geology_seabed_substrate_maps")
wfs_seabed <- emodnet_init_wfs_client(service =  "seabed_habitats_general_datasets_and_products")

# List contents of a WFS
layer_info <- emodnet.wfs::emodnet_get_wfs_info(wfs_seabed)
layer_info

# A tibble: 57 × 9
# Rowwise: 
   data_source service_name   service_url layer_name title abstract class format
   <chr>       <chr>          <chr>       <chr>      <chr> <chr>    <chr> <chr> 
 1 emodnet_wfs seabed_habita… https://ow… art17_hab… 2013… "Gridde… WFSF… sf    
 2 emodnet_wfs seabed_habita… https://ow… art17_hab… 2013… "Gridde… WFSF… sf    
 3 emodnet_wfs seabed_habita… https://ow… art17_hab… 2013… "Gridde… WFSF… sf    
 4 emodnet_wfs seabed_habita… https://ow… art17_hab… 2013… "Gridde… WFSF… sf    
 5 emodnet_wfs seabed_habita… https://ow… art17_hab… 2013… "Gridde… WFSF… sf    
 6 emodnet_wfs seabed_habita… https://ow… art17_hab… 2013… "Gridde… WFSF… sf    
 7 emodnet_wfs seabed_habita… https://ow… art17_hab… 2013… "Gridde… WFSF… sf    
 8 emodnet_wfs seabed_habita… https://ow… art17_hab… 2013… "Gridde… WFSF… sf    
 9 emodnet_wfs seabed_habita… https://ow… carib_eus… 2023… "Output… WFSF… sf    
10 emodnet_wfs seabed_habita… https://ow… biogenic_… Biog… "This l… WFSF… sf    
# ℹ 47 more rows
# ℹ 1 more variable: layer_namespace <chr>
…
